module go.opentelemetry.io/contrib/instrumentation/github.com/go-kit/kit/otelkit

go 1.15

require (
	github.com/go-kit/kit v0.11.0
	go.opentelemetry.io/otel v1.0.1
	go.opentelemetry.io/otel/trace v1.0.1
)

replace go.opentelemetry.io/contrib => ../../../../../
