module go.opentelemetry.io/contrib/exporters/metric/cortex/utils

go 1.15

replace go.opentelemetry.io/contrib/exporters/metric/cortex => ../

require (
	github.com/spf13/afero v1.6.0
	github.com/spf13/viper v1.8.1
	github.com/stretchr/testify v1.7.0
	go.opentelemetry.io/contrib/exporters/metric/cortex v0.25.0
)
