module go.opentelemetry.io/contrib/detectors/gcp

go 1.15

require (
	cloud.google.com/go v0.94.1
	github.com/google/go-cmp v0.5.6
	go.opentelemetry.io/otel v1.0.1
	go.opentelemetry.io/otel/sdk v1.0.1
)
