module go.opentelemetry.io/contrib/instrumentation/github.com/aws/aws-sdk-go-v2/otelaws

go 1.15

replace go.opentelemetry.io/contrib => ../../../../../

require (
	github.com/aws/aws-sdk-go-v2 v1.9.0
	github.com/aws/smithy-go v1.8.0
	go.opentelemetry.io/otel v1.0.1
	go.opentelemetry.io/otel/trace v1.0.1
)
