module go.opentelemetry.io/contrib/detectors/aws/ec2

go 1.15

require (
	github.com/aws/aws-sdk-go v1.40.41
	github.com/stretchr/testify v1.7.0
	go.opentelemetry.io/otel v1.0.1
	go.opentelemetry.io/otel/sdk v1.0.1
)
