module go.opentelemetry.io/contrib/exporters/metric/cortex

go 1.15

require (
	github.com/gogo/protobuf v1.3.2
	github.com/golang/snappy v0.0.4
	github.com/google/go-cmp v0.5.6
	github.com/grpc-ecosystem/grpc-gateway v1.14.6 // indirect
	github.com/prometheus/prometheus v2.5.0+incompatible
	github.com/stretchr/testify v1.7.0
	go.opentelemetry.io/otel v1.0.1
	go.opentelemetry.io/otel/metric v0.24.0
	go.opentelemetry.io/otel/sdk v1.0.1
	go.opentelemetry.io/otel/sdk/export/metric v0.24.0
	go.opentelemetry.io/otel/sdk/metric v0.24.0
)
