module go.opentelemetry.io/contrib/tools

go 1.13

require (
	github.com/client9/misspell v0.3.4
	github.com/golangci/golangci-lint v1.42.1
	github.com/wadey/gocovmerge v0.0.0-20160331181800-b5bfa59ec0ad
	go.opentelemetry.io/build-tools/multimod v0.0.0-20210920164323-2ceabab23375
	golang.org/x/tools v0.1.5
)
